<svg width="28" height="28" viewBox="0 0 28 28" fill="none" xmlns="http://www.w3.org/2000/svg">
<path fill-rule="evenodd" clip-rule="evenodd" d="M3.17236 24.7238L4.67394 19.2599C3.74758 17.661 3.26043 15.8466 3.26099 13.9882C3.26377 8.17434 8.0104 3.44434 13.8439 3.44434C16.6748 3.44545 19.3313 4.54378 21.3295 6.53656C23.3271 8.52989 24.4274 11.1788 24.4263 13.9966C24.424 19.8104 19.6763 24.541 13.8439 24.541H13.8394C12.0687 24.5404 10.328 24.0977 8.78236 23.2571L3.17236 24.7238Z" fill="white"/>
<path fill-rule="evenodd" clip-rule="evenodd" d="M3.17224 25.0015C3.09867 25.0015 3.02733 24.9726 2.97437 24.9193C2.9047 24.8487 2.87739 24.746 2.90359 24.651L4.37451 19.2976C3.46264 17.6832 2.98162 15.8498 2.98274 13.9887C2.98496 8.02095 7.857 3.1665 13.8438 3.1665C16.7477 3.16762 19.4761 4.29484 21.5267 6.34039C23.5773 8.38651 24.7059 11.1054 24.7048 13.9965C24.7026 19.9637 19.83 24.8187 13.8438 24.8187C12.0663 24.8182 10.3078 24.381 8.74713 23.5537L3.24303 24.9921C3.21962 24.9987 3.19621 25.0015 3.17224 25.0015Z" fill="white"/>
<path fill-rule="evenodd" clip-rule="evenodd" d="M13.8439 3.44423C16.6748 3.44534 19.3313 4.54367 21.3295 6.53645C23.3271 8.52978 24.4274 11.1787 24.4263 13.9964C24.424 19.8103 19.6763 24.5409 13.8439 24.5409H13.8394C12.0686 24.5403 10.328 24.0976 8.78235 23.257L3.17235 24.7237L4.67393 19.2598C3.74757 17.6609 3.26042 15.8465 3.26098 13.9881C3.26376 8.17423 8.01039 3.44423 13.8439 3.44423ZM13.8439 2.88867C7.70383 2.88867 2.70639 7.86756 2.7036 13.9881C2.70304 15.8587 3.17681 17.702 4.0753 19.3337L2.63448 24.5776C2.58209 24.7692 2.6356 24.9737 2.77606 25.1148C2.88196 25.2215 3.0252 25.2798 3.17235 25.2798C3.21973 25.2798 3.26711 25.2737 3.31393 25.2614L8.71324 23.8503C10.2895 24.6659 12.0564 25.0965 13.8394 25.097C19.984 25.097 24.9814 20.1176 24.9842 13.997C24.9853 11.0309 23.8276 8.24201 21.7246 6.14423C19.6205 4.04589 16.822 2.88978 13.8439 2.88867Z" fill="#CFD8DC"/>
<path fill-rule="evenodd" clip-rule="evenodd" d="M20.0653 7.79559C18.4043 6.13892 16.1966 5.22614 13.8467 5.22559C8.99526 5.22559 5.04959 9.1567 5.04736 13.9889C5.04681 15.645 5.51166 17.2573 6.39231 18.6534L6.60189 18.985L5.71287 22.2189L9.04208 21.3489L9.36369 21.5389C10.7137 22.3378 12.2621 22.76 13.8405 22.7606H13.8439C18.692 22.7606 22.6376 18.8289 22.6393 13.9961C22.6399 11.6545 21.7263 9.45225 20.0653 7.79559Z" fill="black"/>
<path fill-rule="evenodd" clip-rule="evenodd" d="M11.1986 9.58033C11.0008 9.14144 10.7923 9.13255 10.6034 9.12478C10.449 9.11811 10.2728 9.11866 10.0967 9.11866C9.92057 9.11866 9.63408 9.18477 9.39162 9.44866C9.14916 9.71255 8.46582 10.3498 8.46582 11.6464C8.46582 12.9431 9.41336 14.1964 9.54546 14.372C9.67756 14.5476 11.3748 17.2937 14.0624 18.3503C16.2959 19.2281 16.7507 19.0537 17.2356 19.0098C17.7205 18.9659 18.8001 18.3726 19.0203 17.757C19.2405 17.1414 19.2405 16.6142 19.1747 16.5042C19.1084 16.3942 18.9322 16.3287 18.668 16.1964C18.4039 16.0642 17.1035 15.427 16.861 15.3392C16.6186 15.2514 16.4424 15.2076 16.2658 15.4714C16.0896 15.7348 15.583 16.3287 15.4286 16.5042C15.2742 16.6803 15.1198 16.7026 14.8556 16.5703C14.5914 16.4381 13.7397 16.1603 12.7292 15.2626C11.9433 14.5642 11.4127 13.7014 11.2583 13.4376C11.1039 13.1742 11.2416 13.0314 11.3742 12.8998C11.4929 12.7814 11.6384 12.592 11.7711 12.4381C11.9032 12.2842 11.9472 12.1742 12.0353 11.9987C12.1233 11.8226 12.0793 11.6687 12.013 11.537C11.9478 11.4048 11.4339 10.1014 11.1986 9.58033Z" fill="white"/>
</svg>
